{"count":364,"next":"https://ll.thespacedevs.com/2.0.0/launch/upcoming/?limit=10&offset=10","previous":null,"results":[{"id":"cd4bb934-0652-4425-9a5c-bbe5e467ade4","url":"https://ll.thespacedevs.com/2.0.0/launch/cd4bb934-0652-4425-9a5c-bbe5e467ade4/","launch_library_id":null,"slug":"kairos-flight-3","name":"KAIROS | Flight 3","status":{"id":1,"name":"Go"},"net":"2026-03-04T02:00:00Z","window_end":"2026-03-04T02:20:00Z","window_start":"2026-03-04T02:00:00Z","inhold":false,"tbdtime":false,"tbddate":false,"probability":null,"holdreason":"","failreason":"","hashtag":null,"launch_service_provider":{"id":1083,"url":"https://ll.thespacedevs.com/2.0.0/agencies/1083/","name":"Space One","type":"Commercial"},"rocket":{"id":8852,"configuration":{"id":507,"launch_library_id":null,"url":"https://ll.thespacedevs.com/2.0.0/config/launcher/507/","name":"KAIROS","family":"","full_name":"Kii-based Advanced & Instant ROcket System","variant":""}},"mission":{"id":7443,"launch_library_id":null,"name":"Flight 3","description":"Third flight of the KAIROS launch vehicle. \r\n\r\n5 satellites will be on board:\r\n\r\n* TATARA-1R\r\n* SC-Sat1a\r\n* HErO\r\n* AETS-1\r\n* Nutsat-3 (TASA/Taiwan)","launch_designator":null,"type":"Test Flight","orbit":{"id":17,"name":"Sun-Synchronous Orbit","abbrev":"SSO"}},"pad":{"id":220,"url":"https://ll.thespacedevs.com/2.0.0/pad/220/","agency_id":null,"name":"Space One Launch Pad","info_url":"https://www.space-one.co.jp/","wiki_url":null,"map_url":null,"latitude":"33.544224","longitude":"135.889502","location":{"id":166,"url":"https://ll.thespacedevs.com/2.0.0/location/166/","name":"Spaceport Kii, Japan","country_code":"JPN","map_image":"https://thespacedevs-prod.nyc3.digitaloceanspaces.com/media/map_images/location_space_port_kii252c_japan_20240126073749.jpg","total_launch_count":2,"total_landing_count":0},"map_image":"https://thespacedevs-prod.nyc3.digitaloceanspaces.com/media/map_images/pad_space_one_launch_pad_20240126074332.jpg","total_launch_count":2},"webcast_live":false,"image":"https://thespacedevs-prod.nyc3.digitaloceanspaces.com/media/images/kairos_image_20240216144656.jpeg","infographic":null,"program":[]},{"id":"5d5e17f4-292b-45f6-ab53-05437cf63ce0","url":"https://ll.thespacedevs.com/2.0.0/launch/5d5e17f4-292b-45f6-ab53-05437cf63ce0/","launch_library_id":null,"slug":"falcon-9-block-5-starlink-group-10-40","name":"Falcon 9 Block 5 | Starlink Group 10-40","status":{"id":1,"name":"Go"},"net":"2026-03-04T06:58:00Z","window_end":"2026-03-04T10:58:00Z","window_start":"2026-03-04T06:58:00Z","inhold":false,"tbdtime":false,"tbddate":false,"probability":null,"holdreason":"","failreason":"","hashtag":null,"launch_service_provider":{"id":121,"url":"https://ll.thespacedevs.com/2.0.0/agencies/121/","name":"SpaceX","type":"Commercial"},"rocket":{"id":8921,"configuration":{"id":164,"launch_library_id":188,"url":"https://ll.thespacedevs.com/2.0.0/config/launcher/164/","name":"Falcon 9","family":"Falcon","full_name":"Falcon 9 Block 5","variant":"Block 5"}},"mission":{"id":7513,"launch_library_id":null,"name":"Starlink Group 10-40","description":"A batch of 29 satellites for the Starlink mega-constellation - SpaceX's project for space-based Internet communication system.","launch_designator":null,"type":"Communications","orbit":{"id":8,"name":"Low Earth Orbit","abbrev":"LEO"}},"pad":{"id":80,"url":"https://ll.thespacedevs.com/2.0.0/pad/80/","agency_id":121,"name":"Space Launch Complex 40","info_url":null,"wiki_url":"https://en.wikipedia.org/wiki/Cape_Canaveral_Air_Force_Station_Space_Launch_Complex_40","map_url":"https://www.google.com/maps?q=28.56194122,-80.57735736","latitude":"28.56194122","longitude":"-80.57735736","location":{"id":12,"url":"https://ll.thespacedevs.com/2.0.0/location/12/","name":"Cape Canaveral SFS, FL, USA","country_code":"USA","map_image":"https://thespacedevs-prod.nyc3.digitaloceanspaces.com/media/map_images/location_12_20200803142519.jpg","total_launch_count":1091,"total_landing_count":71},"map_image":"https://thespacedevs-prod.nyc3.digitaloceanspaces.com/media/map_images/pad_80_20200803143323.jpg","total_launch_count":368},"webcast_live":false,"image":"https://thespacedevs-prod.nyc3.digitaloceanspaces.com/media/images/falcon2520925_image_20221009234147.png","infographic":null,"program":[{"id":25,"url":"https://ll.thespacedevs.com/2.0.0/program/25/","name":"Starlink","description":"Starlink is a satellite internet constellation operated by American aerospace company SpaceX","agencies":[{"id":121,"url":"https://ll.thespacedevs.com/2.0.0/agencies/121/","name":"SpaceX","type":"Commercial"}],"image_url":"https://thespacedevs-prod.nyc3.digitaloceanspaces.com/media/images/starlink_program_20231228154508.jpeg","start_date":"2018-02-22T14:17:00Z","end_date":null,"info_url":"https://starlink.com","wiki_url":"https://en.wikipedia.org/wiki/Starlink"}]},{"id":"12e62caf-f4aa-4f28-a3bd-f9c8a44b707d","url":"https://ll.thespacedevs.com/2.0.0/launch/12e62caf-f4aa-4f28-a3bd-f9c8a44b707d/","launch_library_id":null,"slug":"falcon-9-block-5-starlink-group-17-18","name":"Falcon 9 Block 5 | Starlink Group 17-18","status":{"id":1,"name":"Go"},"net":"2026-03-04T21:00:00Z","window_end":"2026-03-05T01:00:00Z","window_start":"2026-03-04T21:00:00Z","inhold":false,"tbdtime":false,"tbddate":false,"probability":null,"holdreason":"","failreason":"","hashtag":null,"launch_service_provider":{"id":121,"url":"https://ll.thespacedevs.com/2.0.0/agencies/121/","name":"SpaceX","type":"Commercial"},"rocket":{"id":8920,"configuration":{"id":164,"launch_library_id":188,"url":"https://ll.thespacedevs.com/2.0.0/config/launcher/164/","name":"Falcon 9","family":"Falcon","full_name":"Falcon 9 Block 5","variant":"Block 5"}},"mission":{"id":7512,"launch_library_id":null,"name":"Starlink Group 17-18","description":"A batch of 25 satellites for the Starlink mega-constellation - SpaceX's project for space-based Internet communication system.","launch_designator":null,"type":"Communications","orbit":{"id":8,"name":"Low Earth Orbit","abbrev":"LEO"}},"pad":{"id":16,"url":"https://ll.thespacedevs.com/2.0.0/pad/16/","agency_id":null,"name":"Space Launch Complex 4E","info_url":null,"wiki_url":"https://en.wikipedia.org/wiki/Vandenberg_Space_Launch_Complex_4#SLC-4E","map_url":"https://www.google.com/maps?q=34.632,-120.611","latitude":"34.632","longitude":"-120.611","location":{"id":11,"url":"https://ll.thespacedevs.com/2.0.0/location/11/","name":"Vandenberg SFB, CA, USA","country_code":"USA","map_image":"https://thespacedevs-prod.nyc3.digitaloceanspaces.com/media/map_images/location_11_20200803142416.jpg","total_launch_count":865,"total_landing_count":33},"map_image":"https://thespacedevs-prod.nyc3.digitaloceanspaces.com/media/map_images/pad_16_20200803143532.jpg","total_launch_count":251},"webcast_live":false,"image":"https://thespacedevs-prod.nyc3.digitaloceanspaces.com/media/images/falcon2520925_image_20221009234147.png","infographic":null,"program":[{"id":25,"url":"https://ll.thespacedevs.com/2.0.0/program/25/","name":"Starlink","description":"Starlink is a satellite internet constellation operated by American aerospace company SpaceX","agencies":[{"id":121,"url":"https://ll.thespacedevs.com/2.0.0/agencies/121/","name":"SpaceX","type":"Commercial"}],"image_url":"https://thespacedevs-prod.nyc3.digitaloceanspaces.com/media/images/starlink_program_20231228154508.jpeg","start_date":"2018-02-22T14:17:00Z","end_date":null,"info_url":"https://starlink.com","wiki_url":"https://en.wikipedia.org/wiki/Starlink"}]},{"id":"d44f47c7-5e3e-40fb-9d10-b6e851acf81a","url":"https://ll.thespacedevs.com/2.0.0/launch/d44f47c7-5e3e-40fb-9d10-b6e851acf81a/","launch_library_id":null,"slug":"falcon-9-block-5-starlink-group-17-31","name":"Falcon 9 Block 5 | Starlink Group 17-31","status":{"id":1,"name":"Go"},"net":"2026-03-08T10:58:00Z","window_end":"2026-03-08T14:58:00Z","window_start":"2026-03-08T10:58:00Z","inhold":false,"tbdtime":false,"tbddate":false,"probability":null,"holdreason":"","failreason":"","hashtag":null,"launch_service_provider":{"id":121,"url":"https://ll.thespacedevs.com/2.0.0/agencies/121/","name":"SpaceX","type":"Commercial"},"rocket":{"id":8922,"configuration":{"id":164,"launch_library_id":188,"url":"https://ll.thespacedevs.com/2.0.0/config/launcher/164/","name":"Falcon 9","family":"Falcon","full_name":"Falcon 9 Block 5","variant":"Block 5"}},"mission":{"id":7514,"launch_library_id":null,"name":"Starlink Group 17-31","description":"A batch of 25 satellites for the Starlink mega-constellation - SpaceX's project for space-based Internet communication system.","launch_designator":null,"type":"Communications","orbit":{"id":8,"name":"Low Earth Orbit","abbrev":"LEO"}},"pad":{"id":16,"url":"https://ll.thespacedevs.com/2.0.0/pad/16/","agency_id":null,"name":"Space Launch Complex 4E","info_url":null,"wiki_url":"https://en.wikipedia.org/wiki/Vandenberg_Space_Launch_Complex_4#SLC-4E","map_url":"https://www.google.com/maps?q=34.632,-120.611","latitude":"34.632","longitude":"-120.611","location":{"id":11,"url":"https://ll.thespacedevs.com/2.0.0/location/11/","name":"Vandenberg SFB, CA, USA","country_code":"USA","map_image":"https://thespacedevs-prod.nyc3.digitaloceanspaces.com/media/map_images/location_11_20200803142416.jpg","total_launch_count":865,"total_landing_count":33},"map_image":"https://thespacedevs-prod.nyc3.digitaloceanspaces.com/media/map_images/pad_16_20200803143532.jpg","total_launch_count":251},"webcast_live":false,"image":"https://thespacedevs-prod.nyc3.digitaloceanspaces.com/media/images/falcon2520925_image_20221009234147.png","infographic":null,"program":[{"id":25,"url":"https://ll.thespacedevs.com/2.0.0/program/25/","name":"Starlink","description":"Starlink is a satellite internet constellation operated by American aerospace company SpaceX","agencies":[{"id":121,"url":"https://ll.thespacedevs.com/2.0.0/agencies/121/","name":"SpaceX","type":"Commercial"}],"image_url":"https://thespacedevs-prod.nyc3.digitaloceanspaces.com/media/images/starlink_program_20231228154508.jpeg","start_date":"2018-02-22T14:17:00Z","end_date":null,"info_url":"https://starlink.com","wiki_url":"https://en.wikipedia.org/wiki/Starlink"}]},{"id":"8701f102-a33e-450b-87b1-660679aab736","url":"https://ll.thespacedevs.com/2.0.0/launch/8701f102-a33e-450b-87b1-660679aab736/","launch_library_id":null,"slug":"falcon-9-block-5-echostar-25","name":"Falcon 9 Block 5 | EchoStar 25","status":{"id":1,"name":"Go"},"net":"2026-03-10T03:14:00Z","window_end":"2026-03-10T05:43:00Z","window_start":"2026-03-10T03:14:00Z","inhold":false,"tbdtime":false,"tbddate":false,"probability":null,"holdreason":"","failreason":"","hashtag":null,"launch_service_provider":{"id":121,"url":"https://ll.thespacedevs.com/2.0.0/agencies/121/","name":"SpaceX","type":"Commercial"},"rocket":{"id":8647,"configuration":{"id":164,"launch_library_id":188,"url":"https://ll.thespacedevs.com/2.0.0/config/launcher/164/","name":"Falcon 9","family":"Falcon","full_name":"Falcon 9 Block 5","variant":"Block 5"}},"mission":{"id":7239,"launch_library_id":null,"name":"EchoStar 25","description":"EchoStar 25 is a direct broadcast satellite, built on the proven Maxar 1300 series platform, which will deliver content across North America. It will be equipped with a high-power, multi-spot beam payload, allowing DISH to provide high-quality content to its customers.","launch_designator":null,"type":"Communications","orbit":{"id":2,"name":"Geostationary Transfer Orbit","abbrev":"GTO"}},"pad":{"id":80,"url":"https://ll.thespacedevs.com/2.0.0/pad/80/","agency_id":121,"name":"Space Launch Complex 40","info_url":null,"wiki_url":"https://en.wikipedia.org/wiki/Cape_Canaveral_Air_Force_Station_Space_Launch_Complex_40","map_url":"https://www.google.com/maps?q=28.56194122,-80.57735736","latitude":"28.56194122","longitude":"-80.57735736","location":{"id":12,"url":"https://ll.thespacedevs.com/2.0.0/location/12/","name":"Cape Canaveral SFS, FL, USA","country_code":"USA","map_image":"https://thespacedevs-prod.nyc3.digitaloceanspaces.com/media/map_images/location_12_20200803142519.jpg","total_launch_count":1091,"total_landing_count":71},"map_image":"https://thespacedevs-prod.nyc3.digitaloceanspaces.com/media/map_images/pad_80_20200803143323.jpg","total_launch_count":368},"webcast_live":false,"image":"https://thespacedevs-prod.nyc3.digitaloceanspaces.com/media/images/falcon_9_image_20230807133459.jpeg","infographic":null,"program":[]},{"id":"42e15d83-d3b0-469d-9d58-580d242f364f","url":"https://ll.thespacedevs.com/2.0.0/launch/42e15d83-d3b0-469d-9d58-580d242f364f/","launch_library_id":null,"slug":"falcon-9-block-5-starlink-group-17-24","name":"Falcon 9 Block 5 | Starlink Group 17-24","status":{"id":1,"name":"Go"},"net":"2026-03-12T02:37:00Z","window_end":"2026-03-12T06:37:00Z","window_start":"2026-03-12T02:37:00Z","inhold":false,"tbdtime":false,"tbddate":false,"probability":null,"holdreason":"","failreason":"","hashtag":null,"launch_service_provider":{"id":121,"url":"https://ll.thespacedevs.com/2.0.0/agencies/121/","name":"SpaceX","type":"Commercial"},"rocket":{"id":8927,"configuration":{"id":164,"launch_library_id":188,"url":"https://ll.thespacedevs.com/2.0.0/config/launcher/164/","name":"Falcon 9","family":"Falcon","full_name":"Falcon 9 Block 5","variant":"Block 5"}},"mission":{"id":7521,"launch_library_id":null,"name":"Starlink Group 17-24","description":"A batch of 25 satellites for the Starlink mega-constellation - SpaceX's project for space-based Internet communication system.","launch_designator":null,"type":"Communications","orbit":{"id":8,"name":"Low Earth Orbit","abbrev":"LEO"}},"pad":{"id":16,"url":"https://ll.thespacedevs.com/2.0.0/pad/16/","agency_id":null,"name":"Space Launch Complex 4E","info_url":null,"wiki_url":"https://en.wikipedia.org/wiki/Vandenberg_Space_Launch_Complex_4#SLC-4E","map_url":"https://www.google.com/maps?q=34.632,-120.611","latitude":"34.632","longitude":"-120.611","location":{"id":11,"url":"https://ll.thespacedevs.com/2.0.0/location/11/","name":"Vandenberg SFB, CA, USA","country_code":"USA","map_image":"https://thespacedevs-prod.nyc3.digitaloceanspaces.com/media/map_images/location_11_20200803142416.jpg","total_launch_count":865,"total_landing_count":33},"map_image":"https://thespacedevs-prod.nyc3.digitaloceanspaces.com/media/map_images/pad_16_20200803143532.jpg","total_launch_count":251},"webcast_live":false,"image":"https://thespacedevs-prod.nyc3.digitaloceanspaces.com/media/images/falcon2520925_image_20221009234147.png","infographic":null,"program":[{"id":25,"url":"https://ll.thespacedevs.com/2.0.0/program/25/","name":"Starlink","description":"Starlink is a satellite internet constellation operated by American aerospace company SpaceX","agencies":[{"id":121,"url":"https://ll.thespacedevs.com/2.0.0/agencies/121/","name":"SpaceX","type":"Commercial"}],"image_url":"https://thespacedevs-prod.nyc3.digitaloceanspaces.com/media/images/starlink_program_20231228154508.jpeg","start_date":"2018-02-22T14:17:00Z","end_date":null,"info_url":"https://starlink.com","wiki_url":"https://en.wikipedia.org/wiki/Starlink"}]},{"id":"6f2868b8-1000-48e5-893b-700c1371b4fb","url":"https://ll.thespacedevs.com/2.0.0/launch/6f2868b8-1000-48e5-893b-700c1371b4fb/","launch_library_id":null,"slug":"falcon-9-block-5-starlink-group-10-48","name":"Falcon 9 Block 5 | Starlink Group 10-48","status":{"id":1,"name":"Go"},"net":"2026-03-12T10:00:00Z","window_end":"2026-03-12T14:00:00Z","window_start":"2026-03-12T10:00:00Z","inhold":false,"tbdtime":false,"tbddate":false,"probability":null,"holdreason":"","failreason":"","hashtag":null,"launch_service_provider":{"id":121,"url":"https://ll.thespacedevs.com/2.0.0/agencies/121/","name":"SpaceX","type":"Commercial"},"rocket":{"id":8928,"configuration":{"id":164,"launch_library_id":188,"url":"https://ll.thespacedevs.com/2.0.0/config/launcher/164/","name":"Falcon 9","family":"Falcon","full_name":"Falcon 9 Block 5","variant":"Block 5"}},"mission":{"id":7522,"launch_library_id":null,"name":"Starlink Group 10-48","description":"A batch of 29 satellites for the Starlink mega-constellation - SpaceX's project for space-based Internet communication system.","launch_designator":null,"type":"Communications","orbit":{"id":8,"name":"Low Earth Orbit","abbrev":"LEO"}},"pad":{"id":80,"url":"https://ll.thespacedevs.com/2.0.0/pad/80/","agency_id":121,"name":"Space Launch Complex 40","info_url":null,"wiki_url":"https://en.wikipedia.org/wiki/Cape_Canaveral_Air_Force_Station_Space_Launch_Complex_40","map_url":"https://www.google.com/maps?q=28.56194122,-80.57735736","latitude":"28.56194122","longitude":"-80.57735736","location":{"id":12,"url":"https://ll.thespacedevs.com/2.0.0/location/12/","name":"Cape Canaveral SFS, FL, USA","country_code":"USA","map_image":"https://thespacedevs-prod.nyc3.digitaloceanspaces.com/media/map_images/location_12_20200803142519.jpg","total_launch_count":1091,"total_landing_count":71},"map_image":"https://thespacedevs-prod.nyc3.digitaloceanspaces.com/media/map_images/pad_80_20200803143323.jpg","total_launch_count":368},"webcast_live":false,"image":"https://thespacedevs-prod.nyc3.digitaloceanspaces.com/media/images/falcon2520925_image_20221009234147.png","infographic":null,"program":[{"id":25,"url":"https://ll.thespacedevs.com/2.0.0/program/25/","name":"Starlink","description":"Starlink is a satellite internet constellation operated by American aerospace company SpaceX","agencies":[{"id":121,"url":"https://ll.thespacedevs.com/2.0.0/agencies/121/","name":"SpaceX","type":"Commercial"}],"image_url":"https://thespacedevs-prod.nyc3.digitaloceanspaces.com/media/images/starlink_program_20231228154508.jpeg","start_date":"2018-02-22T14:17:00Z","end_date":null,"info_url":"https://starlink.com","wiki_url":"https://en.wikipedia.org/wiki/Starlink"}]},{"id":"1b23eb18-e06e-4058-9b42-e95ca0980511","url":"https://ll.thespacedevs.com/2.0.0/launch/1b23eb18-e06e-4058-9b42-e95ca0980511/","launch_library_id":null,"slug":"spectrum-onward-and-upward","name":"Spectrum | Onward and Upward","status":{"id":2,"name":"TBD"},"net":"2026-03-19T00:00:00Z","window_end":"2026-03-19T00:00:00Z","window_start":"2026-03-19T00:00:00Z","inhold":false,"tbdtime":true,"tbddate":false,"probability":null,"holdreason":"","failreason":"","hashtag":null,"launch_service_provider":{"id":1046,"url":"https://ll.thespacedevs.com/2.0.0/agencies/1046/","name":"Isar Aerospace","type":"Private"},"rocket":{"id":8716,"configuration":{"id":491,"launch_library_id":null,"url":"https://ll.thespacedevs.com/2.0.0/config/launcher/491/","name":"Spectrum","family":"","full_name":"Spectrum","variant":""}},"mission":{"id":7309,"launch_library_id":null,"name":"Onward and Upward","description":"Second test flight of the Isar Spectrum launch vehicle. This launch will carry 5 cubesats and 1 non-separable experiment as part of European Space Agency (ESA)'s “Boost!” program:\r\n\r\n* CyBEEsat (TU Berlin)\r\n* TriSat-S (University of Maribor)\r\n* Platform 6 (EnduroSat)\r\n* FramSat-1 (NTNU)\r\n* SpaceTeamSat1 (TU Wien Space Team)\r\n* Let It Go (Dcubed, non-separable experiment)","launch_designator":null,"type":"Test Flight","orbit":{"id":17,"name":"Sun-Synchronous Orbit","abbrev":"SSO"}},"pad":{"id":51,"url":"https://ll.thespacedevs.com/2.0.0/pad/51/","agency_id":null,"name":"Orbital Launch Pad","info_url":null,"wiki_url":"https://en.wikipedia.org/wiki/And%C3%B8ya_Space","map_url":"https://www.google.com/maps?q=69.1084,15.5895","latitude":"69.1084","longitude":"15.5895","location":{"id":161,"url":"https://ll.thespacedevs.com/2.0.0/location/161/","name":"Andøya Spaceport","country_code":"NOR","map_image":"https://thespacedevs-prod.nyc3.digitaloceanspaces.com/media/map_images/location_161_20240109072235.jpg","total_launch_count":1,"total_landing_count":0},"map_image":"https://thespacedevs-prod.nyc3.digitaloceanspaces.com/media/map_images/pad_51_20200803143605.jpg","total_launch_count":1},"webcast_live":false,"image":"https://thespacedevs-prod.nyc3.digitaloceanspaces.com/media/images/spectrum_on_the_image_20250321072643.jpeg","infographic":null,"program":[]},{"id":"cf34aee7-a118-433b-8337-05b2c6892815","url":"https://ll.thespacedevs.com/2.0.0/launch/cf34aee7-a118-433b-8337-05b2c6892815/","launch_library_id":null,"slug":"soyuz-21a-progress-ms-33-94p","name":"Soyuz 2.1a | Progress MS-33 (94P)","status":{"id":2,"name":"TBD"},"net":"2026-03-22T11:59:00Z","window_end":"2026-03-22T11:59:00Z","window_start":"2026-03-22T11:59:00Z","inhold":false,"tbdtime":false,"tbddate":false,"probability":null,"holdreason":"","failreason":"","hashtag":null,"launch_service_provider":{"id":63,"url":"https://ll.thespacedevs.com/2.0.0/agencies/63/","name":"Russian Federal Space Agency (ROSCOSMOS)","type":"Government"},"rocket":{"id":8431,"configuration":{"id":24,"launch_library_id":49,"url":"https://ll.thespacedevs.com/2.0.0/config/launcher/24/","name":"Soyuz 2.1a","family":"Soyuz","full_name":"Soyuz 2.1a","variant":""}},"mission":{"id":7020,"launch_library_id":null,"name":"Progress MS-33 (94P)","description":"Progress resupply mission to the International Space Station.","launch_designator":null,"type":"Resupply","orbit":{"id":8,"name":"Low Earth Orbit","abbrev":"LEO"}},"pad":{"id":20,"url":"https://ll.thespacedevs.com/2.0.0/pad/20/","agency_id":null,"name":"31/6","info_url":null,"wiki_url":"https://en.wikipedia.org/wiki/Baikonur_Cosmodrome_Site_31","map_url":"https://www.google.com/maps?q=45.996034,63.564003","latitude":"45.996034","longitude":"63.564003","location":{"id":15,"url":"https://ll.thespacedevs.com/2.0.0/location/15/","name":"Baikonur Cosmodrome, Republic of Kazakhstan","country_code":"KAZ","map_image":"https://thespacedevs-prod.nyc3.digitaloceanspaces.com/media/map_images/location_15_20200803142517.jpg","total_launch_count":1560,"total_landing_count":0},"map_image":"https://thespacedevs-prod.nyc3.digitaloceanspaces.com/media/map_images/pad_20_20200803143516.jpg","total_launch_count":426},"webcast_live":false,"image":"https://thespacedevs-prod.nyc3.digitaloceanspaces.com/media/images/soyuz_2.1a_image_20230805184309.jpg","infographic":null,"program":[{"id":17,"url":"https://ll.thespacedevs.com/2.0.0/program/17/","name":"International Space Station","description":"The International Space Station programme is tied together by a complex set of legal, political and financial agreements between the sixteen nations involved in the project, governing ownership of the various components, rights to crewing and utilization, and responsibilities for crew rotation and resupply of the International Space Station. It was conceived in 1984 by President Ronald Reagan, during the Space Station Freedom project as it was originally called.","agencies":[{"id":16,"url":"https://ll.thespacedevs.com/2.0.0/agencies/16/","name":"Canadian Space Agency","type":"Government"},{"id":27,"url":"https://ll.thespacedevs.com/2.0.0/agencies/27/","name":"European Space Agency","type":"Multinational"},{"id":37,"url":"https://ll.thespacedevs.com/2.0.0/agencies/37/","name":"Japan Aerospace Exploration Agency","type":"Government"},{"id":44,"url":"https://ll.thespacedevs.com/2.0.0/agencies/44/","name":"National Aeronautics and Space Administration","type":"Government"},{"id":63,"url":"https://ll.thespacedevs.com/2.0.0/agencies/63/","name":"Russian Federal Space Agency (ROSCOSMOS)","type":"Government"}],"image_url":"https://thespacedevs-prod.nyc3.digitaloceanspaces.com/media/images/international2_program_20201129184745.png","start_date":"1998-11-20T06:40:00Z","end_date":null,"info_url":"https://www.nasa.gov/mission_pages/station/main/index.html","wiki_url":"https://en.wikipedia.org/wiki/International_Space_Station_programme"}]},{"id":"b0ca3e7a-650e-4af6-bdf9-658e6e114763","url":"https://ll.thespacedevs.com/2.0.0/launch/b0ca3e7a-650e-4af6-bdf9-658e6e114763/","launch_library_id":null,"slug":"electron-daughter-of-the-stars-leo-pnt-pathfinder","name":"Electron | Daughter Of The Stars (LEO-PNT Pathfinder A)","status":{"id":2,"name":"TBD"},"net":"2026-03-24T00:00:00Z","window_end":"2026-03-24T00:00:00Z","window_start":"2026-03-24T00:00:00Z","inhold":false,"tbdtime":true,"tbddate":false,"probability":null,"holdreason":"","failreason":"","hashtag":null,"launch_service_provider":{"id":147,"url":"https://ll.thespacedevs.com/2.0.0/agencies/147/","name":"Rocket Lab","type":"Commercial"},"rocket":{"id":8648,"configuration":{"id":26,"launch_library_id":148,"url":"https://ll.thespacedevs.com/2.0.0/config/launcher/26/","name":"Electron","family":"","full_name":"Electron","variant":""}},"mission":{"id":7240,"launch_library_id":null,"name":"Daughter Of The Stars (LEO-PNT Pathfinder A)","description":"The European Space Agency (ESA)'s LEO-PNT (Low Earth Orbit Positioning, Navigation and Timing) demonstrator mission will feature a 10-satellite constellation demonstration mission that will assess how a low Earth orbit fleet of satellites can work in combination with the Galileo and EGNOS constellations in higher orbits that provide Europe’s own global navigation system.\r\n\r\nThis launch will lift 2 “Pathfinder A” satellites built by Thales Alenia Space and GMV to a 510 km altitude Low Earth Orbit.","launch_designator":null,"type":"Navigation","orbit":{"id":13,"name":"Polar Orbit","abbrev":"PO"}},"pad":{"id":210,"url":"https://ll.thespacedevs.com/2.0.0/pad/210/","agency_id":null,"name":"Unknown Pad","info_url":null,"wiki_url":null,"map_url":null,"latitude":"-39.260881","longitude":"177.865826","location":{"id":10,"url":"https://ll.thespacedevs.com/2.0.0/location/10/","name":"Rocket Lab Launch Complex 1, Mahia Peninsula, New Zealand","country_code":"NZL","map_image":"https://thespacedevs-prod.nyc3.digitaloceanspaces.com/media/map_images/location_10_20200803142509.jpg","total_launch_count":71,"total_landing_count":17},"map_image":"https://thespacedevs-prod.nyc3.digitaloceanspaces.com/media/map_images/pad_210_20230819165718.jpg","total_launch_count":0},"webcast_live":false,"image":"https://thespacedevs-prod.nyc3.digitaloceanspaces.com/media/images/electron_image_20190705175640.jpeg","infographic":null,"program":[]}]}